…
``` r
write_csv(categorical_count(olympics, city), 'olympic-cities.csv')

categorical_count(olympics, team)
```

    ## # A tibble: 1,184 x 2
    ##    team              n
    ##    <chr>         <int>
    ##  1 United States 17847
    ##  2 France        11988
    ##  3 Great Britain 11404
    ##  4 Italy         10260
    ##  5 Germany        9326
    ##  6 Canada         9279
    ##  7 Japan          8289
    ##  8 Sweden         8052
    ##  9 Australia      7513
    ## 10 Hungary        6547
    ## # ... with 1,174 more rows
…
