…
To pull a list of fish species with similar spellings, we can perform a
self-join and calculate the Levenshtein distance between each pair of
species name. From this, we can create a dataframe to perform cleanup to
standardize species name by joining with the fishing dataset.

``` r
types_of_fish = fishing %>%
  select(species) %>%
  unique()

types_of_fish
```

    ## # A tibble: 51 x 1
    ##    species                      
    ##    <chr>                        
    ##  1 American Eel                 
    ##  2 Blue Pike                    
    ##  3 Bowfin                       
    ##  4 Buffalo                      
    ##  5 Bullheads                    
    ##  6 Burbot                       
    ##  7 Carp                         
    ##  8 Channel Catfish              
    ##  9 Channel catfish              
    ## 10 Channel Catfish and Bullheads
    ## # ... with 41 more rows
…
