…
    ## $type_of_incident
    ## # A tibble: 1 x 2
    ##   value               n
    ##   <chr>           <int>
    ## 1 Special Service  7544
    ## 
    ## $final_description
    ## # A tibble: 4,556 x 2
    ##    value                                   n
    ##    <chr>                               <int>
    ##  1 Redacted                              994
    ##  2 SMALL ANIMAL RESCUE                   152
    ##  3 BIRD TRAPPED IN CHIMNEY                78
    ##  4 ASSIST RSPCA WITH CAT UP TREE          50
    ##  5 BIRD TRAPPED IN NETTING                50
    ##  6 CAT STUCK ON ROOF                      46
    ##  7 CAT STUCK UP TREE                      38
    ##  8 ASSIST RSPCA WITH CAT ON ROOF          37
    ##  9 ASSIST RSPCA WITH CAT STUCK UP TREE    36
    ## 10 PIGEON TRAPPED IN NETTING              33
    ## # ... with 4,546 more rows
    ## 
    ## $animal_group_parent
    ## # A tibble: 28 x 2
    ##    value                                n
    ##    <chr>                            <int>
    ##  1 Cat                               3649
    ##  2 Bird                              1530
    ##  3 Dog                               1194
    ##  4 Fox                                349
    ##  5 Horse                              193
    ##  6 Unknown - Domestic Animal Or Pet   191
    ##  7 Deer                               130
    ##  8 Unknown - Wild Animal               89
    ##  9 Squirrel                            65
    ## 10 Unknown - Heavy Livestock Animal    49
    ## # ... with 18 more rows
    ## 
    ## $originof_call
    ## # A tibble: 8 x 2
    ##   value                     n
    ##   <chr>                 <int>
    ## 1 Person (mobile)        4249
    ## 2 Person (land line)     3106
    ## 3 Police                  131
    ## 4 Other FRS                49
    ## 5 Person (running call)     3
    ## 6 Ambulance                 2
    ## 7 Coastguard                2
    ## 8 Not known                 2
    ## 
    ## $property_type
    ## # A tibble: 180 x 2
    ##    value                                                 n
    ##    <chr>                                             <int>
    ##  1 House - single occupancy                           1950
    ##  2 Purpose Built Flats/Maisonettes - 4 to 9 storeys    624
    ##  3 Purpose Built Flats/Maisonettes - Up to 3 storeys   621
    ##  4 Tree scrub                                          335
    ##  5 Animal harm outdoors                                289
    ##  6 Converted Flat/Maisonettes - 3 or more storeys      268
    ##  7 Car                                                 249
    ##  8 Domestic garden (vegetation not equipment)          232
    ##  9 Converted Flat/Maisonette - Up to 2 storeys         216
    ## 10 Park                                                189
    ## # ... with 170 more rows
    ## 
    ## $property_category
…
    ## 5 Road Vehicle        292
    ## 6 Other Residential    24
    ## 7 Boat                  3
    ## 
    ## $special_service_type_category
    ## # A tibble: 4 x 2
    ##   value                               n
    ##   <chr>                           <int>
    ## 1 Other animal assistance          3653
    ## 2 Animal rescue from height        2721
    ## 3 Animal rescue from below ground   770
    ## 4 Animal rescue from water          400
    ## 
    ## $special_service_type
    ## # A tibble: 24 x 2
    ##    value                                                          n
    ##    <chr>                                                      <int>
    ##  1 Animal rescue from height - Domestic pet                    1689
    ##  2 Assist trapped domestic animal                              1552
    ##  3 Animal rescue from height - Bird                             942
    ##  4 Animal assistance involving livestock - Other action         635
    ##  5 Assist trapped wild animal                                   630
    ##  6 Animal rescue from below ground - Domestic pet               610
    ##  7 Animal assistance involving domestic animal - Other action   433
    ##  8 Animal rescue from water - Domestic pet                      236
    ##  9 Animal assistance involving wild animal - Other action       143
    ## 10 Wild animal rescue from height                                87
    ## # ... with 14 more rows
    ## 
    ## $ward
    ## # A tibble: 1,255 x 2
    ##    value             n
    ##    <chr>         <int>
    ##  1 LEA BRIDGE       26
    ##  2 GOOSHAYS         23
    ##  3 St. Peter's      23
    ##  4 Lea Bridge       22
    ##  5 Woodside         22
    ##  6 Old Kent Road    21
    ##  7 Chislehurst      20
    ##  8 Gooshays         20
    ##  9 Mile End         20
    ## 10 Fairfield        19
    ## # ... with 1,245 more rows
    ## 
    ## $borough
    ## # A tibble: 71 x 2
    ##    value              n
    ##    <chr>          <int>
    ##  1 ENFIELD          177
    ##  2 Croydon          170
    ##  3 Enfield          164
    ##  4 Southwark        160
    ##  5 Lambeth          159
    ##  6 Tower Hamlets    156
    ##  7 Waltham Forest   153
    ##  8 BARNET           152
    ##  9 Barnet           151
    ## 10 CROYDON          147
    ## # ... with 61 more rows
…
