…
# Wrangling and Exploration

Counts for several categoricals.

``` r
categorical_count = function(tbl, column){
  tbl %>% count({{column}}, sort = TRUE)
}

categorical_count(scoobydoo, series_name)
```

    ## # A tibble: 29 x 2
    ##    series_name                                    n
    ##    <chr>                                      <int>
    ##  1 Scooby-Doo and Scrappy-Doo (second series)    86
    ##  2 Be Cool, Scooby-Doo!                          53
    ##  3 Scooby-Doo Mystery Incorporated               52
    ##  4 Laff-a-Lympics                                48
    ##  5 Warner Home Video                             42
    ##  6 What's New Scooby-Doo?                        42
    ##  7 Scooby-Doo and Guess Who?                     41
    ##  8 The Scooby-Doo Show                           40
    ##  9 A Pup Named Scooby-Doo                        30
    ## 10 Shaggy & Scooby-Doo Get a Clue!               26
    ## # ... with 19 more rows
…
    ## # A tibble: 5 x 2
    ##   format                    n
    ##   <chr>                 <int>
    ## 1 TV Series               374
    ## 2 TV Series (segmented)   175
    ## 3 Movie                    43
    ## 4 Crossover                 8
    ## 5 Movie (Theatrical)        3

``` r
categorical_count(scoobydoo, monster_gender)
```

    ## # A tibble: 44 x 2
    ##    monster_gender                         n
    ##    <chr>                              <int>
    ##  1 Male                                 319
    ##  2 NULL                                  87
    ##  3 Male,Male                             47
    ##  4 Female                                30
    ##  5 Male,Male,Male                        23
    ##  6 Male,Male,Male,Male                   15
    ##  7 Male,Female                           11
    ##  8 Female,Male                            5
    ##  9 Male,Male,Male,Male,Male,Male,Male     5
    ## 10 Male,Female,Male                       4
    ## # ... with 34 more rows
…
``` r
categorical_count(scoobydoo, setting_country_state)
```

    ## # A tibble: 79 x 2
    ##    setting_country_state     n
    ##    <chr>                 <int>
    ##  1 United States           309
    ##  2 California               75
    ##  3 England                  12
    ##  4 Mexico                   10
    ##  5 Louisiana                 8
    ##  6 New York                  8
    ##  7 Canada                    7
    ##  8 Greece                    7
    ##  9 France                    6
    ## 10 Japan                     6
    ## # ... with 69 more rows
…
    ## # A tibble: 3 x 2
    ##   arrested     n
    ##   <chr>    <int>
    ## 1 TRUE       381
    ## 2 NULL       155
    ## 3 FALSE       67

``` r
categorical_count(scoobydoo, culprit_gender)
```

    ## # A tibble: 24 x 2
    ##    culprit_gender       n
    ##    <chr>            <int>
    ##  1 Male               263
    ##  2 NULL               163
    ##  3 Female              61
    ##  4 Male,Male           47
    ##  5 Male,Female         20
    ##  6 Female,Male         15
    ##  7 Male,Male,Male       7
    ##  8 Female,Female        4
    ##  9 Female,Male,Male     3
    ## 10 Male,Female,Male     3
    ## # ... with 14 more rows

``` r
categorical_count(scoobydoo, if_it_wasnt_for)
```

    ## # A tibble: 108 x 2
    ##    if_it_wasnt_for                                        n
    ##    <chr>                                              <int>
    ##  1 NULL                                                 414
    ##  2 you meddling kids                                     65
    ##  3 you pesky kids                                         9
    ##  4 those meddling kids                                    4
    ##  5 you meddling-                                          3
    ##  6 you                                                    2
    ##  7 you meddling grown-ups                                 2
    ##  8 you meddling kids who like an idiot I invited here     2
    ##  9 you meddling kids, eh                                  2
    ## 10 you meddling mainlanders                               2
    ## # ... with 98 more rows

``` r
categorical_count(scoobydoo, and_that)
```

    ## # A tibble: 65 x 2
    ##    and_that                                                                    n
    ##    <chr>                                                                   <int>
    ##  1 NULL                                                                      528
    ##  2 puppy                                                                       9
    ##  3 dog                                                                         4
    ##  4 actress, singer, dancer and comedian Sandy Duncan                           1
    ##  5 and                                                                         1
    ##  6 and country music sensation Kacey Musgraves                                 1
    ##  7 and famed TV personality and game show host, Alex Trebek                    1
    ##  8 and famour Justice Leaguer and superhero speedster, The Flash               1
    ##  9 and famous singer/award-winning, multi-platinum, alternate pop maveric~     1
    ## 10 and siner-songwriter, musician and rock god, Axl Rose                       1
    ## # ... with 55 more rows
…
``` r
# Unpack monster_name
monster_names = scoobydoo %>% select(index, monster_name) %>% mutate(monster_name = str_split(monster_name, ",")) %>% unnest(monster_name) %>% distinct(index, monster_name)

# Number of episodes monster has appeared in
monster_name_counts = monster_names %>% filter(!(monster_name %in% c("NULL", ""))) %>% count(monster_name, sort=TRUE)

# Monsters that have appears more than once
monster_name_counts %>% filter(n > 1)
```

    ## # A tibble: 66 x 2
    ##    monster_name           n
    ##    <chr>              <int>
    ##  1 Dr. Phineus Phibes    26
    ##  2 Agent X               25
    ##  3 Dr. Trebla            24
    ##  4 Mark                  12
    ##  5 Ricky                 12
    ##  6 Bogel                  9
    ##  7 Mummy                  9
    ##  8 Weerd                  9
    ##  9 Zombie                 9
    ## 10 Phantom                7
    ## # ... with 56 more rows
…
