…
# Run K-Fold Cross validation against workflow using tuning grid
rf_tuned_rs = tune_grid(
  workflow,
  resamples = folds,
  grid = rf_grid
)

# Collect metrics for all folds and sort from best to worst
collect_metrics(rf_tuned_rs) %>%
  filter(.metric == "roc_auc") %>%
  arrange(desc(mean))
```

    ## # A tibble: 25 x 8
    ##     mtry min_n .metric .estimator  mean     n std_err .config              
    ##    <int> <int> <chr>   <chr>      <dbl> <int>   <dbl> <chr>                
    ##  1     8     6 roc_auc binary     0.740     5  0.0148 Preprocessor1_Model19
    ##  2     8     5 roc_auc binary     0.740     5  0.0145 Preprocessor1_Model14
    ##  3     8     8 roc_auc binary     0.739     5  0.0145 Preprocessor1_Model24
    ##  4    10     8 roc_auc binary     0.739     5  0.0148 Preprocessor1_Model25
    ##  5     6     8 roc_auc binary     0.738     5  0.0154 Preprocessor1_Model23
    ##  6    10     5 roc_auc binary     0.738     5  0.0144 Preprocessor1_Model15
    ##  7     6     6 roc_auc binary     0.737     5  0.0157 Preprocessor1_Model18
    ##  8    10     6 roc_auc binary     0.736     5  0.0155 Preprocessor1_Model20
    ##  9     6     5 roc_auc binary     0.734     5  0.0161 Preprocessor1_Model13
    ## 10     8     3 roc_auc binary     0.733     5  0.0172 Preprocessor1_Model09
    ## # ... with 15 more rows
…
