…
``` r
drought %>%
  select(area_total, pop_total) %>%
  filter(area_total == 0 | pop_total == 0)
```

    ## # A tibble: 176,342 x 2
    ##    area_total pop_total
    ##         <dbl>     <dbl>
    ##  1          0         0
    ##  2          0         0
    ##  3          0         0
    ##  4          0         0
    ##  5          0         0
    ##  6          0         0
    ##  7          0         0
    ##  8          0         0
    ##  9          0         0
    ## 10          0         0
    ## # ... with 176,332 more rows

Which states were most frequently in a period of extreme drought?

``` r
drought %>% 
  filter(drought_lvl %in% c("D3", "D4"), area_total > 0) %>%
  count(state_abb, sort = TRUE)
```

    ## # A tibble: 51 x 2
    ##    state_abb     n
    ##    <chr>     <int>
    ##  1 TX          693
    ##  2 NM          586
    ##  3 CO          551
    ##  4 AZ          548
    ##  5 NV          519
    ##  6 KS          509
    ##  7 CA          472
    ##  8 OK          469
    ##  9 WY          446
    ## 10 MT          438
    ## # ... with 41 more rows
…
